<?xml version="1.0" encoding="utf-8"?>
<!-- Generator: Adobe Illustrator 16.0.0, SVG Export Plug-In . SVG Version: 6.00 Build 0)  -->
<!DOCTYPE svg PUBLIC "-//W3C//DTD SVG 1.1//EN" "http://www.w3.org/Graphics/SVG/1.1/DTD/svg11.dtd">
<svg version="1.1" id="Layer_1" xmlns="http://www.w3.org/2000/svg" xmlns:xlink="http://www.w3.org/1999/xlink" x="0px" y="0px"
	 width="61.828px" height="12.5px" viewBox="0 0 61.828 12.5" enable-background="new 0 0 61.828 12.5" xml:space="preserve">
<g id="Arrow_3">
</g>
<path fill="#C50000" d="M3.863,5.576c-0.53-0.354-0.972-0.707-0.972-0.883c0-0.266,0.354-0.442,1.679-0.178
	c5.833,1.148,14.669-0.619,17.674-2.121c0.441-0.177,0.883-0.529,1.149-0.529c0.265,0,0.618,0.176,1.148,0.529
	c3.093,2.033,7.777,3.094,18.205,2.475c6.009-0.354,12.019,1.768,14.669,4.241c0.442,0.442,0.707,0.796,0.707,0.973
	s-0.442,0-1.061-0.354c-3.446-1.944-6.009-2.917-10.604-2.917c-6.893,0-12.726,3.536-24.39,3.536
	C14.467,10.349,7.84,8.228,3.863,5.576z"/>
</svg>
